R Packages - 3/7/25 – R useRs Group Blog
…
Error:
! [conflicted] filter found in 2 packages.
Either pick the one you want with `::`:
• dplyr::filter
• stats::filter
Or declare a preference with `conflicts_prefer()`:
• conflicts_prefer(dplyr::filter)
• conflicts_prefer(stats::filter)
Backtrace:
 1. conflicted (local) `<fn>`()

dplyr::filter(starwars, species == "Human")

# A tibble: 35 × 14
   name     height  mass hair_color skin_color eye_color birth_year sex   gender
   <chr>     <int> <dbl> <chr>      <chr>      <chr>          <dbl> <chr> <chr> 
 1 Luke Sk…    172    77 blond      fair       blue            19   male  mascu…
 2 Darth V…    202   136 none       white      yellow          41.9 male  mascu…
 3 Leia Or…    150    49 brown      light      brown           19   fema… femin…
 4 Owen La…    178   120 brown, gr… light      blue            52   male  mascu…
 5 Beru Wh…    165    75 brown      light      blue            47   fema… femin…
 6 Biggs D…    183    84 black      light      brown           24   male  mascu…
 7 Obi-Wan…    182    77 auburn, w… fair       blue-gray       57   male  mascu…
 8 Anakin …    188    84 blond      fair       blue            41.9 male  mascu…
 9 Wilhuff…    180    NA auburn, g… fair       blue            64   male  mascu…
10 Han Solo    180    80 brown      fair       brown           29   male  mascu…
# ℹ 25 more rows
# ℹ 5 more variables: homeworld <chr>, species <chr>, films <list>,
#   vehicles <list>, starships <list>

conflicts_prefer(dplyr::filter)

[conflicted] Will prefer dplyr::filter over any other package.

filter(starwars, species == "Human")

# A tibble: 35 × 14
   name     height  mass hair_color skin_color eye_color birth_year sex   gender
   <chr>     <int> <dbl> <chr>      <chr>      <chr>          <dbl> <chr> <chr> 
 1 Luke Sk…    172    77 blond      fair       blue            19   male  mascu…
 2 Darth V…    202   136 none       white      yellow          41.9 male  mascu…
 3 Leia Or…    150    49 brown      light      brown           19   fema… femin…
 4 Owen La…    178   120 brown, gr… light      blue            52   male  mascu…
 5 Beru Wh…    165    75 brown      light      blue            47   fema… femin…
 6 Biggs D…    183    84 black      light      brown           24   male  mascu…
 7 Obi-Wan…    182    77 auburn, w… fair       blue-gray       57   male  mascu…
 8 Anakin …    188    84 blond      fair       blue            41.9 male  mascu…
 9 Wilhuff…    180    NA auburn, g… fair       blue            64   male  mascu…
10 Han Solo    180    80 brown      fair       brown           29   male  mascu…
# ℹ 25 more rows
# ℹ 5 more variables: homeworld <chr>, species <chr>, films <list>,
#   vehicles <list>, starships <list>
…
Packages change over time. Some very prominent packages, like tidyr, supersede old packages while retaining some of the older functions. E.g. gather() versus pivot_longer(). View the help pages!

# not run:
# ?tidyr::gather()
# ?tidyr::pivot_longer()

starwars_select <- starwars |> 
  dplyr::select(name, hair_color, skin_color, eye_color)

starwars_select |> 
  tidyr::gather(key = "attribute", value = "value", hair_color, skin_color, eye_color, na.rm = TRUE) |> 
  dplyr::arrange(name)

# A tibble: 256 × 3
   name             attribute  value       
   <chr>            <chr>      <chr>       
 1 Ackbar           hair_color none        
 2 Ackbar           skin_color brown mottle
 3 Ackbar           eye_color  orange      
 4 Adi Gallia       hair_color none        
 5 Adi Gallia       skin_color dark        
 6 Adi Gallia       eye_color  blue        
 7 Anakin Skywalker hair_color blond       
 8 Anakin Skywalker skin_color fair        
 9 Anakin Skywalker eye_color  blue        
10 Arvel Crynyd     hair_color brown       
# ℹ 246 more rows

starwars_select |> 
  tidyr::pivot_longer(cols = c(hair_color, skin_color, eye_color), names_to = "attribute", values_to = "values", values_drop_na = TRUE) |> 
  dplyr::arrange(name)

# A tibble: 256 × 3
   name             attribute  values      
   <chr>            <chr>      <chr>       
 1 Ackbar           hair_color none        
 2 Ackbar           skin_color brown mottle
 3 Ackbar           eye_color  orange      
 4 Adi Gallia       hair_color none        
 5 Adi Gallia       skin_color dark        
 6 Adi Gallia       eye_color  blue        
 7 Anakin Skywalker hair_color blond       
 8 Anakin Skywalker skin_color fair        
 9 Anakin Skywalker eye_color  blue        
10 Arvel Crynyd     hair_color brown       
# ℹ 246 more rows
…
